\relax 
\providecommand\hyper@newdestlabel[2]{}
\providecommand\HyperFirstAtBeginDocument{\AtBeginDocument}
\HyperFirstAtBeginDocument{\ifx\hyper@anchor\@undefined
\global\let\oldcontentsline\contentsline
\gdef\contentsline#1#2#3#4{\oldcontentsline{#1}{#2}{#3}}
\global\let\oldnewlabel\newlabel
\gdef\newlabel#1#2{\newlabelxx{#1}#2}
\gdef\newlabelxx#1#2#3#4#5#6{\oldnewlabel{#1}{{#2}{#3}}}
\AtEndDocument{\ifx\hyper@anchor\@undefined
\let\contentsline\oldcontentsline
\let\newlabel\oldnewlabel
\fi}
\fi}
\global\let\hyper@last\relax 
\gdef\HyperFirstAtBeginDocument#1{#1}
\providecommand\HyField@AuxAddToFields[1]{}
\providecommand\HyField@AuxAddToCoFields[2]{}
\@writefile{toc}{\contentsline {section}{\numberline {1}Introduction}{1}{section.1}}
\@writefile{toc}{\contentsline {section}{\numberline {2}Data Organization and Integration}{2}{section.2}}
\@writefile{toc}{\contentsline {section}{\numberline {3}Primary Collisions}{3}{section.3}}
\@writefile{lof}{\contentsline {figure}{\numberline {1}{\ignorespaces A scatter plot showing the spread in the ratio of impact velocity and escape velocity of both normal systems (in red) and Hydrogen shell systems (in blue). We find that the spread in impact velocities is statistically similar to the normal systems.\relax }}{3}{figure.1}}
\@writefile{lof}{\contentsline {figure}{\numberline {2}{\ignorespaces Distribution of impact angles, as calculated using Equation 2, are normal distributed and centered at 45$^{\circ }$ as expected.\relax }}{4}{figure.2}}
\@writefile{lof}{\contentsline {figure}{\numberline {3}{\ignorespaces Histogram of the combined impact velocity and escape velocity ratio found to be centered at 1. We place more confidence in the median as determined through the large spread in values in Figure 1.\relax }}{4}{figure.3}}
\@writefile{lof}{\contentsline {figure}{\numberline {4}{\ignorespaces Using the power of data analytics we can reduce the scatter plot from Figure 1 into a much clearer picture showing the intrinsic relationship between the k spacing, or \ensuremath  {k_{mean}}, and the ratio \ensuremath  {v_{imp} / v_{esc}}.\relax }}{4}{figure.4}}
\@writefile{toc}{\contentsline {section}{\numberline {4}Merging Collisions}{5}{section.4}}
\@writefile{toc}{\contentsline {subsection}{\numberline {4.1}Dynamics of Later Collisions}{5}{subsection.4.1}}
\@writefile{lof}{\contentsline {figure}{\numberline {5}{\ignorespaces Plot of the impact velocities in later collisions. Later collisions are found to be violent and chaotic thus not allowing us to take them as complete mergers as we did for the primary collision in the planetary systems.\relax }}{5}{figure.5}}
\@writefile{toc}{\contentsline {subsection}{\numberline {4.2}Orbital Parameters}{6}{subsection.4.2}}
\@writefile{lof}{\contentsline {figure}{\numberline {6}{\ignorespaces The semi major axis for System 10. Notice how planet 3 disappears, as we find it is headed for a collision with the host star.\relax }}{6}{figure.6}}
\@writefile{lof}{\contentsline {figure}{\numberline {7}{\ignorespaces The semi major axis for System 2, with the planet 2 and planet 1 as the remaining planets in the system.\relax }}{6}{figure.7}}
\bibcite{}{1}
\@writefile{lof}{\contentsline {figure}{\numberline {8}{\ignorespaces The eccentricity for System 2. Notice how the eccentricities of planet 1 and planet 2 osscilate through secular evolution. The secular evolutuion would remain till t = 2.5 myr.\relax }}{7}{figure.8}}
\@writefile{lof}{\contentsline {figure}{\numberline {9}{\ignorespaces The inclination of System 2. Notice how during collision times the inclination becomes chaotic, showing us there is more complexity behind the dynamics of planetary evolution.\relax }}{7}{figure.9}}
\@writefile{toc}{\contentsline {section}{\numberline {5}Summary and Conclusion}{7}{section.5}}
\bibcite{}{2}
\bibcite{}{3}
\bibcite{}{4}
\bibcite{}{5}
\bibcite{}{6}
\bibcite{}{7}
\bibcite{}{8}
\bibcite{}{9}
\bibcite{}{10}
\bibcite{}{11}
\bibcite{}{12}
